{
  "shell_port": 36383,
  "iopub_port": 41821,
  "stdin_port": 59761,
  "control_port": 39629,
  "hb_port": 57001,
  "ip": "127.0.0.1",
  "key": "52c40ce3-8d0d289830e0bdeaea6f5d86",
  "transport": "tcp",
  "signature_scheme": "hmac-sha256",
  "kernel_name": ""
}